Quick stack windows setup
---------------------------
Simple script made by Mineik
https://github.com/mineikCZ
https://gitlab.com/Mineik

You only have to run it **ONCE**
Don't run it more times, it may or may not break everything.
be sure to wait for npm i processes to finish, before you proceed to start the stack!!!!!!!!!!!!!!!!!!!!!!!!!!!!!!!!!!!!!!!!!!!!!
----------------------------------------------------------------------------------------------